{
  "routes": [
    {
      "method": "GET",
      "path": "/views",
      "handler": "Views.find",
      "config": {
        "policies": []
      }
    },
    {
      "method": "GET",
      "path": "/views/count",
      "handler": "Views.count",
      "config": {
        "policies": []
      }
    },
    {
      "method": "GET",
      "path": "/views/:id",
      "handler": "Views.findOne",
      "config": {
        "policies": []
      }
    },
    {
      "method": "POST",
      "path": "/views",
      "handler": "Views.create",
      "config": {
        "policies": []
      }
    },
    {
      "method": "PUT",
      "path": "/views/:id",
      "handler": "Views.update",
      "config": {
        "policies": []
      }
    },
    {
      "method": "DELETE",
      "path": "/views/:id",
      "handler": "Views.delete",
      "config": {
        "policies": []
      }
    }
  ]
}
