{
  "connection": "default",
  "collectionName": "users",
  "info": {
    "name": "usersdetails",
    "description": "All the users\n"
  },
  "options": {
    "increments": true,
    "timestamps": [
      "created_at",
      "updated_at"
    ],
    "comment": ""
  },
  "attributes": {
    "user": {
      "model": "user",
      "via": "usersdetail",
      "plugin": "users-permissions"
    },
    "image": {
      "type": "json"
    },
    "phone": {
      "type": "string"
    }
  }
}