{
  "routes": [
    {
      "method": "GET",
      "path": "/usersdetails",
      "handler": "Usersdetails.find",
      "config": {
        "policies": []
      }
    },
    {
      "method": "GET",
      "path": "/usersdetails/count",
      "handler": "Usersdetails.count",
      "config": {
        "policies": []
      }
    },
    {
      "method": "GET",
      "path": "/usersdetails/:id",
      "handler": "Usersdetails.findOne",
      "config": {
        "policies": []
      }
    },
    {
      "method": "POST",
      "path": "/usersdetails",
      "handler": "Usersdetails.create",
      "config": {
        "policies": []
      }
    },
    {
      "method": "PUT",
      "path": "/usersdetails/:id",
      "handler": "Usersdetails.update",
      "config": {
        "policies": []
      }
    },
    {
      "method": "DELETE",
      "path": "/usersdetails/:id",
      "handler": "Usersdetails.delete",
      "config": {
        "policies": []
      }
    }
  ]
}
